Molecular Function,0.1,0.2,0.3,0.4,0.5,0.6,0.7,0.8,0.9
0,0.0613609765,0.0613609765,0.0613609765,0.0613609765,0.0613311281,0.0614129722,0.0611927824,0.0609878364,0.0605165567
2,0.0035282632,0.0035282632,0.0035282632,0.0035282632,0.0034174365,0.0036814539,0.0000000000,0.0000000000,0.0000000000
12,0.0742574293,0.0742574293,0.0742574293,0.0742574293,0.0742575610,0.0742268164,0.0742551481,0.0738384165,0.0734805137
31,0.0175185637,0.0175185637,0.0175185637,0.0175185637,0.0175745550,0.0175698784,0.0176167566,0.0175673112,0.0172420737
53,0.0038486211,0.0038486211,0.0038486211,0.0038486211,0.0038287526,0.0033446746,0.0000000000,0.0000000000,0.0000000000
65,0.0206708147,0.0206708147,0.0206708147,0.0206708147,0.0206296637,0.0207338085,0.0205040079,0.0203810228,0.0203161032
66,0.0269454866,0.0269454866,0.0269454866,0.0269454866,0.0270689824,0.0268172809,0.0264955596,0.0263803050,0.0260629571
102,0.0092753450,0.0092753450,0.0092753450,0.0092753450,0.0091729067,0.0090982911,0.0090062139,0.0091877732,0.0000000000
129,0.0073633309,0.0073633309,0.0073633309,0.0073633309,0.0075054594,0.0074072060,0.0071026805,0.0071812035,0.0000000000
133,0.0281955913,0.0281955913,0.0281955913,0.0281955913,0.0281303804,0.0280878886,0.0280752515,0.0278105084,0.0275912787
141,0.0044884134,0.0044884134,0.0044884134,0.0044884134,0.0045288237,0.0047403822,0.0047871116,0.0000000000,0.0000000000
191,0.0861007314,0.0861007314,0.0861007314,0.0861007314,0.0860579491,0.0862299660,0.0862263019,0.0861317509,0.0860704718
202,0.0041685173,0.0041685173,0.0041685173,0.0041685173,0.0041305598,0.0039694753,0.0024371882,0.0000000000,0.0000000000
322,0.0086386183,0.0086386183,0.0086386183,0.0086386183,0.0086827808,0.0084231385,0.0087758572,0.0083159073,0.0000000000
347,0.0156223591,0.0156223591,0.0156223591,0.0156223591,0.0156025124,0.0156730315,0.0153340017,0.0152518488,0.0153525042
356,0.0095938604,0.0095938604,0.0095938604,0.0095938604,0.0094985584,0.0093446765,0.0094583432,0.0093337117,0.0000000000
415,0.0035282632,0.0035282632,0.0035282632,0.0035282632,0.0035442979,0.0035371258,0.0000000000,0.0000000000,0.0000000000
421,0.0622663188,0.0622663188,0.0622663188,0.0622663188,0.0622438782,0.0620156181,0.0621931235,0.0619834828,0.0619655248
439,0.0102299766,0.0102299766,0.0102299766,0.0102299766,0.0102994389,0.0101365742,0.0099433063,0.0104410373,0.0030882845
502,0.0121364959,0.0121364959,0.0121364959,0.0121364959,0.0121533232,0.0119935029,0.0117662314,0.0115528756,0.0117567104
538,0.0149894344,0.0149894344,0.0149894344,0.0149894344,0.0149034219,0.0148306554,0.0148201143,0.0149307829,0.0147927243
546,0.0070443558,0.0070443558,0.0070443558,0.0070443558,0.0070184075,0.0070623444,0.0072473615,0.0070522078,0.0000000000
584,0.0051280519,0.0051280519,0.0051280519,0.0051280519,0.0051955164,0.0050465937,0.0057046021,0.0000000000,0.0000000000
624,0.0213001219,0.0213001219,0.0213001219,0.0213001219,0.0212446497,0.0214785539,0.0217162966,0.0216090801,0.0215757080
671,0.0067253806,0.0067253806,0.0067253806,0.0067253806,0.0067291509,0.0063774435,0.0064888534,0.0057384071,0.0000000000
716,0.0038486211,0.0038486211,0.0038486211,0.0038486211,0.0038789459,0.0036949343,0.0000000000,0.0000000000,0.0000000000
725,0.0041685173,0.0041685173,0.0041685173,0.0041685173,0.0041134598,0.0042639226,0.0025846862,0.0000000000,0.0000000000
779,0.0130883862,0.0130883862,0.0130883862,0.0130883862,0.0130276627,0.0131322003,0.0129643696,0.0132977369,0.0128200730
785,0.0048084631,0.0048084631,0.0048084631,0.0048084631,0.0047396059,0.0047668484,0.0047321644,0.0000000000,0.0000000000
823,0.0130883862,0.0130883862,0.0130883862,0.0130883862,0.0130861329,0.0132174204,0.0135416792,0.0134320150,0.0129292697
851,0.0054476406,0.0054476406,0.0054476406,0.0054476406,0.0054506723,0.0055324055,0.0054318681,0.0000000000,0.0000000000
872,0.0598503770,0.0598503770,0.0598503770,0.0598503770,0.0598120986,0.0595942413,0.0594181541,0.0592612894,0.0593906321
882,0.0051280519,0.0051280519,0.0051280519,0.0051280519,0.0051359222,0.0052832249,0.0054897834,0.0000000000,0.0000000000
883,0.0073633309,0.0073633309,0.0073633309,0.0073633309,0.0072561666,0.0073131399,0.0073856241,0.0075112853,0.0000000000
950,0.0102299766,0.0102299766,0.0102299766,0.0102299766,0.0103154670,0.0103075148,0.0103739045,0.0104209357,0.0031571999
970,0.0086386183,0.0086386183,0.0086386183,0.0086386183,0.0085944743,0.0087941495,0.0091188509,0.0090914127,0.0000000000
1107,0.0060866643,0.0060866643,0.0060866643,0.0060866643,0.0060635952,0.0060533909,0.0059412573,0.0000000000,0.0000000000
1170,0.0206708147,0.0206708147,0.0206708147,0.0206708147,0.0207029417,0.0204288092,0.0200554840,0.0200250536,0.0196279825
1173,0.0111836932,0.0111836932,0.0111836932,0.0111836932,0.0111554938,0.0112224182,0.0111430268,0.0112784754,0.0113639494
1179,0.0060866643,0.0060866643,0.0060866643,0.0060866643,0.0060907956,0.0061014072,0.0061352007,0.0000000000,0.0000000000
1182,0.0035282632,0.0035282632,0.0035282632,0.0035282632,0.0036232164,0.0040191254,0.0000000000,0.0000000000,0.0000000000
1204,0.0089569816,0.0089569816,0.0089569816,0.0089569816,0.0090426099,0.0089348526,0.0087883015,0.0087040946,0.0000000000
1207,0.0038486211,0.0038486211,0.0038486211,0.0038486211,0.0038928491,0.0037084222,0.0000000000,0.0000000000,0.0000000000
1273,0.0057673825,0.0057673825,0.0057673825,0.0057673825,0.0055587562,0.0058638411,0.0059562205,0.0000000000,0.0000000000
1283,0.0083197968,0.0083197968,0.0083197968,0.0083197968,0.0083554663,0.0081672101,0.0078493200,0.0074632678,0.0000000000
1445,0.0035282632,0.0035282632,0.0035282632,0.0035282632,0.0035455393,0.0034617257,0.0000000000,0.0000000000,0.0000000000
1457,0.0127712411,0.0127712411,0.0127712411,0.0127712411,0.0126674819,0.0126012939,0.0125528340,0.0124752431,0.0128888315
1474,0.0048084631,0.0048084631,0.0048084631,0.0048084631,0.0048495548,0.0049786935,0.0050808354,0.0000000000,0.0000000000
1505,0.0197261775,0.0197261775,0.0197261775,0.0197261775,0.0196428280,0.0196955594,0.0197280186,0.0197063230,0.0197249524
1509,0.0092753450,0.0092753450,0.0092753450,0.0092753450,0.0092639568,0.0092652878,0.0089407943,0.0083309558,0.0000000000