Molecular Function,AUC
0,0.4954624926
2,0.5025685391
12,0.4973054081
31,0.4999283178
53,0.4653098443
65,0.5000201374
66,0.4949930258
102,0.4954366066
129,0.4967077315
133,0.4968933292
141,0.5132283414
191,0.5041047369
202,0.4846806613
322,0.4944223071
347,0.4963045086
356,0.4770784755
415,0.4944924620
421,0.4965859298
439,0.5034896347
502,0.4898689348
538,0.4993899277
546,0.5092753187
584,0.5066145824
624,0.5060685453
671,0.4827274648
716,0.5065266482
725,0.4939287387
779,0.4987190684
785,0.4934871475
823,0.5055104123
851,0.5037322378
872,0.4981037263
882,0.5179453265
883,0.4945394752
950,0.5131658739
970,0.5087636086
1107,0.4986502717
1170,0.4871919881
1173,0.5021240030
1179,0.5046594281
1182,0.5348012232
1204,0.4964379906
1207,0.4895842600
1273,0.5004118738
1283,0.4876078753
1445,0.5039135683
1457,0.4923026958
1474,0.5197327356
1505,0.5005236550
1509,0.4923829612