Molecular Function,AUC
7,0.5016350279
18,0.5256840742
120,0.4910034605
189,0.4759606274
192,0.4953272230
289,0.4720131854
297,0.5190431786
299,0.4930413251
307,0.4634754012
318,0.5602444123
350,0.4939924414
373,0.5327797246
435,0.4853385300
524,0.5265139989
561,0.5448400064
636,0.4673886477
656,0.5139095792
658,0.5196819514
659,0.5059452625
662,0.5052066249
696,0.5278282311
701,0.5504669564
721,0.5077919192
748,0.5501318540
761,0.4887619844
788,0.5195301300
812,0.5041236681
900,0.5075365814
908,0.5159340033
934,0.4941159336
994,0.4815742081
1017,0.5151857212
1026,0.4998927344
1065,0.5025042940
1079,0.5578437366
1092,0.4774425281
1104,0.5739922854
1119,0.4825775848
1138,0.4945405078
1165,0.5194685757
1191,0.4952243126
1240,0.5080972455
1303,0.5154520654
1410,0.5108752377
1424,0.4890482583
1427,0.5687965350
1430,0.5155239168
1432,0.4981758937
1527,0.5066387574
1549,0.5223199629